%YAML 1.1
%TAG !u! tag:unity3d.com,2011:
--- !u!1045 &1
EditorBuildSettings:
  m_ObjectHideFlags: 0
  serializedVersion: 2
  m_Scenes:
  - enabled: 1
    path: Assets/Scenes/TestBeachScene.unity
    guid: e1cf25a8d338f2b42ac20cbe38e51a32
  m_configObjects:
    Unity.XR.Oculus.Settings: {fileID: 11400000, guid: c12a8ef93a9a16e40b8595e8d766a513, type: 2}
    Unity.XR.OpenVR.Settings: {fileID: 11400000, guid: 18c7b260ca17785458aa6657015a8c0a, type: 2}
    com.unity.xr.management.loader_settings: {fileID: 11400000, guid: 26b05c04c36bf734c8e2b16df32d1ad6, type: 2}
